module gitlab.oit.duke.edu/devil-ops/patchmonkeyctl

go 1.22.0

toolchain go1.23.2

require (
	github.com/Khan/genqlient v0.7.0
	github.com/charmbracelet/huh v0.6.0
	github.com/charmbracelet/log v0.4.0
	github.com/drewstinnett/gout-cobra v0.2.0
	github.com/drewstinnett/gout/v2 v2.3.0
	github.com/mitchellh/go-homedir v1.1.0
	github.com/spf13/cobra v1.8.1
	github.com/spf13/viper v1.19.0
	gitlab.oit.duke.edu/devil-ops/go-patchmonkey v0.9.5
	golang.org/x/term v0.25.0
	golang.org/x/text v0.19.0
	gopkg.in/yaml.v2 v2.4.0
)

require (
	github.com/agnivade/levenshtein v1.2.0 // indirect
	github.com/alexflint/go-arg v1.5.1 // indirect
	github.com/alexflint/go-scalar v1.2.0 // indirect
	github.com/atotto/clipboard v0.1.4 // indirect
	github.com/aymanbagabas/go-osc52/v2 v2.0.1 // indirect
	github.com/catppuccin/go v0.2.0 // indirect
	github.com/charmbracelet/bubbles v0.20.0 // indirect
	github.com/charmbracelet/bubbletea v1.1.0 // indirect
	github.com/charmbracelet/lipgloss v0.13.0 // indirect
	github.com/charmbracelet/x/ansi v0.3.2 // indirect
	github.com/charmbracelet/x/exp/strings v0.0.0-20240722160745-212f7b056ed0 // indirect
	github.com/charmbracelet/x/term v0.2.0 // indirect
	github.com/cpuguy83/go-md2man/v2 v2.0.5 // indirect
	github.com/dustin/go-humanize v1.0.1 // indirect
	github.com/erikgeiser/coninput v0.0.0-20211004153227-1c3628e74d0f // indirect
	github.com/fsnotify/fsnotify v1.7.0 // indirect
	github.com/go-logfmt/logfmt v0.6.0 // indirect
	github.com/golang-jwt/jwt/v5 v5.2.1 // indirect
	github.com/hashicorp/hcl v1.0.0 // indirect
	github.com/inconshreveable/mousetrap v1.1.0 // indirect
	github.com/lucasb-eyer/go-colorful v1.2.0 // indirect
	github.com/magiconair/properties v1.8.7 // indirect
	github.com/mattn/go-isatty v0.0.20 // indirect
	github.com/mattn/go-localereader v0.0.1 // indirect
	github.com/mattn/go-runewidth v0.0.16 // indirect
	github.com/mitchellh/hashstructure/v2 v2.0.2 // indirect
	github.com/mitchellh/mapstructure v1.5.0 // indirect
	github.com/muesli/ansi v0.0.0-20230316100256-276c6243b2f6 // indirect
	github.com/muesli/cancelreader v0.2.2 // indirect
	github.com/muesli/termenv v0.15.3-0.20240618155329-98d742f6907a // indirect
	github.com/pelletier/go-toml/v2 v2.2.3 // indirect
	github.com/rivo/uniseg v0.4.7 // indirect
	github.com/rogpeppe/go-internal v1.10.0 // indirect
	github.com/russross/blackfriday/v2 v2.1.0 // indirect
	github.com/sagikazarmark/locafero v0.6.0 // indirect
	github.com/sagikazarmark/slog-shim v0.1.0 // indirect
	github.com/sourcegraph/conc v0.3.0 // indirect
	github.com/spf13/afero v1.11.0 // indirect
	github.com/spf13/cast v1.7.0 // indirect
	github.com/spf13/pflag v1.0.5 // indirect
	github.com/subosito/gotenv v1.6.0 // indirect
	github.com/vektah/gqlparser/v2 v2.5.17 // indirect
	gitlab.oit.duke.edu/devil-ops/go-iam-oidc v0.3.0 // indirect
	go.uber.org/multierr v1.11.0 // indirect
	golang.org/x/exp v0.0.0-20241004190924-225e2abe05e6 // indirect
	golang.org/x/mod v0.21.0 // indirect
	golang.org/x/sync v0.8.0 // indirect
	golang.org/x/sys v0.26.0 // indirect
	golang.org/x/tools v0.26.0 // indirect
	gopkg.in/check.v1 v1.0.0-20201130134442-10cb98267c6c // indirect
	gopkg.in/ini.v1 v1.67.0 // indirect
	gopkg.in/yaml.v3 v3.0.1 // indirect
	moul.io/http2curl v1.0.0 // indirect
)
